module gitlab.com/Isotop7/proviant

go 1.22.0

toolchain go1.23.2

require (
	github.com/appleboy/gin-jwt/v2 v2.10.0
	github.com/gin-contrib/cors v1.7.2
	github.com/gin-gonic/gin v1.10.0
	github.com/makiuchi-d/gozxing v0.1.1
	github.com/rs/zerolog v1.33.0
	github.com/spf13/viper v1.19.0
	golang.org/x/crypto v0.29.0
	gopkg.in/mail.v2 v2.3.1
	gorm.io/driver/mysql v1.5.7
	gorm.io/driver/sqlite v1.5.6
	gorm.io/gorm v1.25.12
)

require (
	filippo.io/edwards25519 v1.1.0 // indirect
	github.com/bytedance/sonic v1.12.4 // indirect
	github.com/bytedance/sonic/loader v0.2.1 // indirect
	github.com/cloudwego/base64x v0.1.4 // indirect
	github.com/cloudwego/iasm v0.2.0 // indirect
	github.com/fsnotify/fsnotify v1.8.0 // indirect
	github.com/gabriel-vasile/mimetype v1.4.7 // indirect
	github.com/gin-contrib/sse v0.1.0 // indirect
	github.com/go-playground/locales v0.14.1 // indirect
	github.com/go-playground/universal-translator v0.18.1 // indirect
	github.com/go-playground/validator/v10 v10.23.0 // indirect
	github.com/go-sql-driver/mysql v1.8.1 // indirect
	github.com/goccy/go-json v0.10.3 // indirect
	github.com/golang-jwt/jwt/v4 v4.5.1 // indirect
	github.com/hashicorp/hcl v1.0.0 // indirect
	github.com/jinzhu/inflection v1.0.0 // indirect
	github.com/jinzhu/now v1.1.5 // indirect
	github.com/json-iterator/go v1.1.12 // indirect
	github.com/klauspost/cpuid/v2 v2.2.9 // indirect
	github.com/leodido/go-urn v1.4.0 // indirect
	github.com/magiconair/properties v1.8.7 // indirect
	github.com/mattn/go-colorable v0.1.13 // indirect
	github.com/mattn/go-isatty v0.0.20 // indirect
	github.com/mattn/go-sqlite3 v1.14.24 // indirect
	github.com/mitchellh/mapstructure v1.5.0 // indirect
	github.com/modern-go/concurrent v0.0.0-20180306012644-bacd9c7ef1dd // indirect
	github.com/modern-go/reflect2 v1.0.2 // indirect
	github.com/pelletier/go-toml/v2 v2.2.3 // indirect
	github.com/rogpeppe/go-internal v1.11.0 // indirect
	github.com/sagikazarmark/locafero v0.6.0 // indirect
	github.com/sagikazarmark/slog-shim v0.1.0 // indirect
	github.com/sourcegraph/conc v0.3.0 // indirect
	github.com/spf13/afero v1.11.0 // indirect
	github.com/spf13/cast v1.7.0 // indirect
	github.com/spf13/pflag v1.0.5 // indirect
	github.com/subosito/gotenv v1.6.0 // indirect
	github.com/twitchyliquid64/golang-asm v0.15.1 // indirect
	github.com/ugorji/go/codec v1.2.12 // indirect
	go.uber.org/multierr v1.11.0 // indirect
	golang.org/x/arch v0.12.0 // indirect
	golang.org/x/exp v0.0.0-20241108190413-2d47ceb2692f // indirect
	golang.org/x/net v0.31.0 // indirect
	golang.org/x/sys v0.27.0 // indirect
	golang.org/x/text v0.20.0 // indirect
	golang.org/x/xerrors v0.0.0-20240903120638-7835f813f4da // indirect
	google.golang.org/protobuf v1.35.2 // indirect
	gopkg.in/alexcesaro/quotedprintable.v3 v3.0.0-20150716171945-2caba252f4dc // indirect
	gopkg.in/ini.v1 v1.67.0 // indirect
	gopkg.in/yaml.v3 v3.0.1 // indirect
)
